{
    "prepare_queue": {
        "installed": [],
        "uninstalled": []
    },
    "config_munge": {
        "files": {
            "package.appxmanifest": {
                "parents": {
                    "/Package/Capabilities": [
                        {
                            "xml": "<DeviceCapability Name=\"webcam\" />",
                            "count": 1
                        }
                    ]
                }
            }
        }
    },
    "installed_plugins": {
        "cordova-plugin-compat": {
            "PACKAGE_NAME": "saintPeteApp"
        },
        "cordova-plugin-camera": {
            "PACKAGE_NAME": "saintPeteApp"
        },
        "cordova-plugin-console": {
            "PACKAGE_NAME": "saintPeteApp"
        },
        "cordova-plugin-device": {
            "PACKAGE_NAME": "saintPeteApp"
        },
        "cordova-plugin-splashscreen": {
            "PACKAGE_NAME": "saintPeteApp"
        },
        "cordova-plugin-statusbar": {
            "PACKAGE_NAME": "saintPeteApp"
        },
        "cordova-plugin-whitelist": {
            "PACKAGE_NAME": "saintPeteApp"
        },
        "ionic-plugin-keyboard": {
            "PACKAGE_NAME": "saintPeteApp"
        }
    },
    "dependent_plugins": {},
    "modules": [
        {
            "id": "cordova-plugin-camera.Camera",
            "file": "plugins/cordova-plugin-camera/www/CameraConstants.js",
            "pluginId": "cordova-plugin-camera",
            "clobbers": [
                "Camera"
            ]
        },
        {
            "id": "cordova-plugin-camera.CameraPopoverOptions",
            "file": "plugins/cordova-plugin-camera/www/CameraPopoverOptions.js",
            "pluginId": "cordova-plugin-camera",
            "clobbers": [
                "CameraPopoverOptions"
            ]
        },
        {
            "id": "cordova-plugin-camera.camera",
            "file": "plugins/cordova-plugin-camera/www/Camera.js",
            "pluginId": "cordova-plugin-camera",
            "clobbers": [
                "navigator.camera"
            ]
        },
        {
            "id": "cordova-plugin-camera.CameraPopoverHandle",
            "file": "plugins/cordova-plugin-camera/www/CameraPopoverHandle.js",
            "pluginId": "cordova-plugin-camera",
            "clobbers": [
                "CameraPopoverHandle"
            ]
        },
        {
            "id": "cordova-plugin-camera.CameraProxy",
            "file": "plugins/cordova-plugin-camera/src/windows/CameraProxy.js",
            "pluginId": "cordova-plugin-camera",
            "merges": [
                ""
            ]
        },
        {
            "id": "cordova-plugin-console.logger",
            "file": "plugins/cordova-plugin-console/www/logger.js",
            "pluginId": "cordova-plugin-console",
            "clobbers": [
                "cordova.logger"
            ]
        },
        {
            "id": "cordova-plugin-console.console",
            "file": "plugins/cordova-plugin-console/www/console-via-logger.js",
            "pluginId": "cordova-plugin-console",
            "clobbers": [
                "console"
            ]
        },
        {
            "id": "cordova-plugin-device.device",
            "file": "plugins/cordova-plugin-device/www/device.js",
            "pluginId": "cordova-plugin-device",
            "clobbers": [
                "device"
            ]
        },
        {
            "id": "cordova-plugin-device.DeviceProxy",
            "file": "plugins/cordova-plugin-device/src/windows/DeviceProxy.js",
            "pluginId": "cordova-plugin-device",
            "merges": [
                ""
            ]
        },
        {
            "id": "cordova-plugin-splashscreen.SplashScreen",
            "file": "plugins/cordova-plugin-splashscreen/www/splashscreen.js",
            "pluginId": "cordova-plugin-splashscreen",
            "clobbers": [
                "navigator.splashscreen"
            ]
        },
        {
            "id": "cordova-plugin-splashscreen.SplashScreenProxy",
            "file": "plugins/cordova-plugin-splashscreen/www/windows/SplashScreenProxy.js",
            "pluginId": "cordova-plugin-splashscreen",
            "merges": [
                ""
            ]
        },
        {
            "id": "cordova-plugin-statusbar.statusbar",
            "file": "plugins/cordova-plugin-statusbar/www/statusbar.js",
            "pluginId": "cordova-plugin-statusbar",
            "clobbers": [
                "window.StatusBar"
            ]
        },
        {
            "id": "cordova-plugin-statusbar.StatusBarProxy",
            "file": "plugins/cordova-plugin-statusbar/src/windows/StatusBarProxy.js",
            "pluginId": "cordova-plugin-statusbar",
            "runs": true
        },
        {
            "id": "ionic-plugin-keyboard.KeyboardProxy",
            "file": "plugins/ionic-plugin-keyboard/src/windows/KeyboardProxy.js",
            "pluginId": "ionic-plugin-keyboard",
            "clobbers": [
                "cordova.plugins.Keyboard"
            ],
            "runs": true
        }
    ],
    "plugin_metadata": {
        "cordova-plugin-compat": "1.1.0",
        "cordova-plugin-camera": "2.3.1",
        "cordova-plugin-console": "1.0.5",
        "cordova-plugin-device": "1.1.4",
        "cordova-plugin-splashscreen": "4.0.1",
        "cordova-plugin-statusbar": "2.2.1",
        "cordova-plugin-whitelist": "1.3.2-dev",
        "ionic-plugin-keyboard": "2.2.1"
    }
}